{
    "pipeline_name": "videoTestInput",
    "pipeline_description": "videotestsrc name=videotestsrc0 is-live=true ! shmdatasink",
    "pipeline_properties": {
      "videotestsrc0": {
        "horizontal-speed": 0,
        "pattern": "ball"
      }
    }
}
