{
    "pipeline_name": "videoTestStandalone",
    "pipeline_description": "videotestsrc name=videotestsrc0 is-live=true ! glimagesink name=glimagesink0",
    "pipeline_properties": {
      "videotestsrc0": {
        "horizontal-speed": 0,
        "pattern": "ball"
      },
      "glimagesink0": {
        "rotate-method": "clockwise",
        "brightness": 0.75
      }
    }
}
